target/tb.vcd
$date
  Thu Jul 11 16:00:15 2024
$end
$version
  GHDL v0
$end
$timescale
  1 fs
$end
$scope module standard $end
$upscope $end
$scope module std_logic_1164 $end
$upscope $end
$scope module numeric_std $end
$upscope $end
$scope module runtime $end
$upscope $end
$scope module textio $end
$upscope $end
$scope module tb_main $end
$var reg 32 ! tb_argument[0:31] $end
$var reg 32 " tb_result[0:31] $end
$var reg 32 # tb_next_result[0:31] $end
$var reg 1 $ tb_rdy[0:0] $end
$var reg 1 % tb_clk $end
$var reg 1 & rst $end
$scope module u1 $end
$var reg 1 ' clk $end
$var reg 1 ( reset $end
$var reg 1 ) rdy[0:0] $end
$var reg 32 * argument[0:31] $end
$var reg 32 + result[0:31] $end
$comment \state%now\ is not handled $end
$comment \state%next\ is not handled $end
$var reg 64 , \$104_loop1655_arg%next\[0:63] $end
$var reg 64 - \$104_loop1655_arg%now\[0:63] $end
$var reg 64 . \$122_loop1656_arg%next\[0:63] $end
$var reg 64 / \$122_loop1656_arg%now\[0:63] $end
$var reg 1 0 \$v62%next\[0:0] $end
$var reg 1 1 \$v62%now\[0:0] $end
$var reg 1 2 \$v61%next\[0:0] $end
$var reg 1 3 \$v61%now\[0:0] $end
$var reg 1 4 \rdy58%next\[0:0] $end
$var reg 1 5 \rdy58%now\[0:0] $end
$var reg 1 6 \$v63%next\[0:0] $end
$var reg 1 7 \$v63%now\[0:0] $end
$var reg 1 8 \$v60%next\[0:0] $end
$var reg 1 9 \$v60%now\[0:0] $end
$var reg 32 : \$104_loop1655_result%next\[0:31] $end
$var reg 32 ; \$104_loop1655_result%now\[0:31] $end
$var reg 32 < \result57%next\[0:31] $end
$var reg 32 = \result57%now\[0:31] $end
$var reg 32 > \$122_loop1656_result%next\[0:31] $end
$var reg 32 ? \$122_loop1656_result%now\[0:31] $end
$var reg 32 @ \$103_x%next\[0:31] $end
$var reg 32 A \$103_x%now\[0:31] $end
$upscope $end
$upscope $end
$enddefinitions $end
#0
b00000000000000000000000000000000 !
b00000000000000000000000000000000 "
b00000000000000000000000000000000 #
b0 $
1%
1&
1'
1(
b0 )
b00000000000000000000000000000000 *
b00000000000000000000000000000000 +
b0000000000000000000000000000000000000000000000000000000000000000 ,
b0000000000000000000000000000000000000000000000000000000000000000 -
b0000000000000000000000000000000000000000000000000000000000000000 .
b0000000000000000000000000000000000000000000000000000000000000000 /
b0 0
b0 1
b0 2
b0 3
b0 4
b0 5
b0 6
b0 7
b0 8
b0 9
b00000000000000000000000000000000 :
b00000000000000000000000000000000 ;
b00000000000000000000000000000000 <
b00000000000000000000000000000000 =
b00000000000000000000000000000000 >
b00000000000000000000000000000000 ?
b00000000000000000000000000000000 @
b00000000000000000000000000000000 A
#2000000
0&
0(
#5000000
0%
0'
b0 )
#10000000
1%
1'
b0 )
b0000000000000000000000000000000000000000000000000000000000000001 .
b1 0
#15000000
0%
0'
b0 )
#20000000
1%
1'
b0 )
b0000000000000000000000000000000000000000000000000000000000000010 .
b0000000000000000000000000000000000000000000000000000000000000001 /
b1 1
#25000000
0%
0'
b0 )
#30000000
1%
1'
b0 )
b0000000000000000000000000000000000000000000000000000000000000011 .
b0000000000000000000000000000000000000000000000000000000000000010 /
#35000000
0%
0'
b0 )
#40000000
1%
1'
b0 )
b0000000000000000000000000000000000000000000000000000000000000100 .
b0000000000000000000000000000000000000000000000000000000000000011 /
#45000000
0%
0'
b0 )
#50000000
1%
1'
b0 )
b0000000000000000000000000000000000000000000000000000000000000101 .
b0000000000000000000000000000000000000000000000000000000000000100 /
#55000000
0%
0'
b0 )
#60000000
1%
1'
b0 )
b0000000000000000000000000000000000000000000000000000000000000110 .
b0000000000000000000000000000000000000000000000000000000000000101 /
#65000000
0%
0'
b0 )
#70000000
1%
1'
b0 )
b0000000000000000000000000000000000000000000000000000000000000111 .
b0000000000000000000000000000000000000000000000000000000000000110 /
#75000000
0%
0'
b0 )
#80000000
1%
1'
b0 )
b0000000000000000000000000000000000000000000000000000000000001000 .
b0000000000000000000000000000000000000000000000000000000000000111 /
#85000000
0%
0'
b0 )
#90000000
1%
1'
b0 )
b0000000000000000000000000000000000000000000000000000000000001001 .
b0000000000000000000000000000000000000000000000000000000000001000 /
#95000000
0%
0'
b0 )
#100000000
1%
1'
b0 )
b0000000000000000000000000000000000000000000000000000000000001010 .
b0000000000000000000000000000000000000000000000000000000000001001 /
#105000000
0%
0'
b0 )
#110000000
1%
1'
b0 )
b0000000000000000000000000000000000000000000000000000000000001011 .
b0000000000000000000000000000000000000000000000000000000000001010 /
#115000000
0%
0'
b0 )
#120000000
1%
1'
b0 )
b0000000000000000000000000000000000000000000000000000000000001100 .
b0000000000000000000000000000000000000000000000000000000000001011 /
#125000000
0%
0'
b0 )
#130000000
1%
1'
b0 )
b0000000000000000000000000000000000000000000000000000000000001101 .
b0000000000000000000000000000000000000000000000000000000000001100 /
#135000000
0%
0'
b0 )
#140000000
1%
1'
b0 )
b0000000000000000000000000000000000000000000000000000000000001110 .
b0000000000000000000000000000000000000000000000000000000000001101 /
#145000000
0%
0'
b0 )
#150000000
1%
1'
b0 )
b0000000000000000000000000000000000000000000000000000000000001111 .
b0000000000000000000000000000000000000000000000000000000000001110 /
#155000000
0%
0'
b0 )
#160000000
1%
1'
b0 )
b0000000000000000000000000000000000000000000000000000000000010000 .
b0000000000000000000000000000000000000000000000000000000000001111 /
#165000000
0%
0'
b0 )
#170000000
1%
1'
b0 )
b0000000000000000000000000000000000000000000000000000000000010001 .
b0000000000000000000000000000000000000000000000000000000000010000 /
#175000000
0%
0'
b0 )
#180000000
1%
1'
b0 )
b0000000000000000000000000000000000000000000000000000000000010010 .
b0000000000000000000000000000000000000000000000000000000000010001 /
#185000000
0%
0'
b0 )
#190000000
1%
1'
b0 )
b0000000000000000000000000000000000000000000000000000000000010011 .
b0000000000000000000000000000000000000000000000000000000000010010 /
#195000000
0%
0'
b0 )
#200000000
1%
1'
b0 )
b0000000000000000000000000000000000000000000000000000000000010100 .
b0000000000000000000000000000000000000000000000000000000000010011 /
#205000000
0%
0'
b0 )
#210000000
1%
1'
b0 )
b0000000000000000000000000000000000000000000000000000000000010101 .
b0000000000000000000000000000000000000000000000000000000000010100 /
#215000000
0%
0'
b0 )
#220000000
1%
1'
b0 )
b0000000000000000000000000000000000000000000000000000000000010110 .
b0000000000000000000000000000000000000000000000000000000000010101 /
#225000000
0%
0'
b0 )
#230000000
1%
1'
b0 )
b0000000000000000000000000000000000000000000000000000000000010111 .
b0000000000000000000000000000000000000000000000000000000000010110 /
#235000000
0%
0'
b0 )
#240000000
1%
1'
b0 )
b0000000000000000000000000000000000000000000000000000000000011000 .
b0000000000000000000000000000000000000000000000000000000000010111 /
#245000000
0%
0'
b0 )
#250000000
1%
1'
b0 )
b0000000000000000000000000000000000000000000000000000000000011001 .
b0000000000000000000000000000000000000000000000000000000000011000 /
#255000000
0%
0'
b0 )
#260000000
1%
1'
b0 )
b0000000000000000000000000000000000000000000000000000000000011010 .
b0000000000000000000000000000000000000000000000000000000000011001 /
#265000000
0%
0'
b0 )
#270000000
1%
1'
b0 )
b0000000000000000000000000000000000000000000000000000000000011011 .
b0000000000000000000000000000000000000000000000000000000000011010 /
#275000000
0%
0'
b0 )
#280000000
1%
1'
b0 )
b0000000000000000000000000000000000000000000000000000000000011100 .
b0000000000000000000000000000000000000000000000000000000000011011 /
#285000000
0%
0'
b0 )
#290000000
1%
1'
b0 )
b0000000000000000000000000000000000000000000000000000000000011101 .
b0000000000000000000000000000000000000000000000000000000000011100 /
#295000000
0%
0'
b0 )
#300000000
1%
1'
b0 )
b0000000000000000000000000000000000000000000000000000000000011110 .
b0000000000000000000000000000000000000000000000000000000000011101 /
#305000000
0%
0'
b0 )
#310000000
1%
1'
b0 )
b0000000000000000000000000000000000000000000000000000000000011111 .
b0000000000000000000000000000000000000000000000000000000000011110 /
#315000000
0%
0'
b0 )
#320000000
1%
1'
b0 )
b0000000000000000000000000000000000000000000000000000000000100000 .
b0000000000000000000000000000000000000000000000000000000000011111 /
#325000000
0%
0'
b0 )
#330000000
1%
1'
b0 )
b0000000000000000000000000000000000000000000000000000000000100001 .
b0000000000000000000000000000000000000000000000000000000000100000 /
#335000000
0%
0'
b0 )
#340000000
1%
1'
b0 )
b0000000000000000000000000000000000000000000000000000000000100010 .
b0000000000000000000000000000000000000000000000000000000000100001 /
#345000000
0%
0'
b0 )
#350000000
1%
1'
b0 )
b0000000000000000000000000000000000000000000000000000000000100011 .
b0000000000000000000000000000000000000000000000000000000000100010 /
#355000000
0%
0'
b0 )
#360000000
1%
1'
b0 )
b0000000000000000000000000000000000000000000000000000000000100100 .
b0000000000000000000000000000000000000000000000000000000000100011 /
#365000000
0%
0'
b0 )
#370000000
1%
1'
b0 )
b0000000000000000000000000000000000000000000000000000000000100101 .
b0000000000000000000000000000000000000000000000000000000000100100 /
#375000000
0%
0'
b0 )
#380000000
1%
1'
b0 )
b0000000000000000000000000000000000000000000000000000000000100110 .
b0000000000000000000000000000000000000000000000000000000000100101 /
#385000000
0%
0'
b0 )
#390000000
1%
1'
b0 )
b0000000000000000000000000000000000000000000000000000000000100111 .
b0000000000000000000000000000000000000000000000000000000000100110 /
#395000000
0%
0'
b0 )
#400000000
1%
1'
b0 )
b0000000000000000000000000000000000000000000000000000000000101000 .
b0000000000000000000000000000000000000000000000000000000000100111 /
#405000000
0%
0'
b0 )
#410000000
1%
1'
b0 )
b0000000000000000000000000000000000000000000000000000000000101001 .
b0000000000000000000000000000000000000000000000000000000000101000 /
#415000000
0%
0'
b0 )
#420000000
1%
1'
b0 )
b0000000000000000000000000000000000000000000000000000000000101010 .
b0000000000000000000000000000000000000000000000000000000000101001 /
#425000000
0%
0'
b0 )
#430000000
1%
1'
b0 )
b0000000000000000000000000000000000000000000000000000000000101011 .
b0000000000000000000000000000000000000000000000000000000000101010 /
#435000000
0%
0'
b0 )
#440000000
1%
1'
b0 )
b0000000000000000000000000000000000000000000000000000000000101100 .
b0000000000000000000000000000000000000000000000000000000000101011 /
#445000000
0%
0'
b0 )
#450000000
1%
1'
b0 )
b0000000000000000000000000000000000000000000000000000000000101101 .
b0000000000000000000000000000000000000000000000000000000000101100 /
#455000000
0%
0'
b0 )
#460000000
1%
1'
b0 )
b0000000000000000000000000000000000000000000000000000000000101110 .
b0000000000000000000000000000000000000000000000000000000000101101 /
#465000000
0%
0'
b0 )
#470000000
1%
1'
b0 )
b0000000000000000000000000000000000000000000000000000000000101111 .
b0000000000000000000000000000000000000000000000000000000000101110 /
#475000000
0%
0'
b0 )
#480000000
1%
1'
b0 )
b0000000000000000000000000000000000000000000000000000000000110000 .
b0000000000000000000000000000000000000000000000000000000000101111 /
#485000000
0%
0'
b0 )
#490000000
1%
1'
b0 )
b0000000000000000000000000000000000000000000000000000000000110001 .
b0000000000000000000000000000000000000000000000000000000000110000 /
#495000000
0%
0'
b0 )
#500000000
1%
1'
b0 )
b0000000000000000000000000000000000000000000000000000000000110010 .
b0000000000000000000000000000000000000000000000000000000000110001 /
#505000000
0%
0'
b0 )
#510000000
1%
1'
b0 )
b0000000000000000000000000000000000000000000000000000000000110011 .
b0000000000000000000000000000000000000000000000000000000000110010 /
#515000000
0%
0'
b0 )
#520000000
1%
1'
b0 )
b0000000000000000000000000000000000000000000000000000000000110100 .
b0000000000000000000000000000000000000000000000000000000000110011 /
#525000000
0%
0'
b0 )
#530000000
1%
1'
b0 )
b0000000000000000000000000000000000000000000000000000000000110101 .
b0000000000000000000000000000000000000000000000000000000000110100 /
#535000000
0%
0'
b0 )
#540000000
1%
1'
b0 )
b0000000000000000000000000000000000000000000000000000000000110110 .
b0000000000000000000000000000000000000000000000000000000000110101 /
#545000000
0%
0'
b0 )
#550000000
1%
1'
b0 )
b0000000000000000000000000000000000000000000000000000000000110111 .
b0000000000000000000000000000000000000000000000000000000000110110 /
#555000000
0%
0'
b0 )
#560000000
1%
1'
b0 )
b0000000000000000000000000000000000000000000000000000000000111000 .
b0000000000000000000000000000000000000000000000000000000000110111 /
#565000000
0%
0'
b0 )
#570000000
1%
1'
b0 )
b0000000000000000000000000000000000000000000000000000000000111001 .
b0000000000000000000000000000000000000000000000000000000000111000 /
#575000000
0%
0'
b0 )
#580000000
1%
1'
b0 )
b0000000000000000000000000000000000000000000000000000000000111010 .
b0000000000000000000000000000000000000000000000000000000000111001 /
#585000000
0%
0'
b0 )
#590000000
1%
1'
b0 )
b0000000000000000000000000000000000000000000000000000000000111011 .
b0000000000000000000000000000000000000000000000000000000000111010 /
#595000000
0%
0'
b0 )
#600000000
1%
1'
b0 )
b0000000000000000000000000000000000000000000000000000000000111100 .
b0000000000000000000000000000000000000000000000000000000000111011 /
#605000000
0%
0'
b0 )
#610000000
1%
1'
b0 )
b0000000000000000000000000000000000000000000000000000000000111101 .
b0000000000000000000000000000000000000000000000000000000000111100 /
#615000000
0%
0'
b0 )
#620000000
1%
1'
b0 )
b0000000000000000000000000000000000000000000000000000000000111110 .
b0000000000000000000000000000000000000000000000000000000000111101 /
#625000000
0%
0'
b0 )
#630000000
1%
1'
b0 )
b0000000000000000000000000000000000000000000000000000000000111111 .
b0000000000000000000000000000000000000000000000000000000000111110 /
#635000000
0%
0'
b0 )
#640000000
1%
1'
b0 )
b0000000000000000000000000000000000000000000000000000000001000000 .
b0000000000000000000000000000000000000000000000000000000000111111 /
#645000000
0%
0'
b0 )
#650000000
1%
1'
b0 )
b0000000000000000000000000000000000000000000000000000000001000001 .
b0000000000000000000000000000000000000000000000000000000001000000 /
#655000000
0%
0'
b0 )
#660000000
1%
1'
b0 )
b0000000000000000000000000000000000000000000000000000000001000010 .
b0000000000000000000000000000000000000000000000000000000001000001 /
#665000000
0%
0'
b0 )
#670000000
1%
1'
b0 )
b0000000000000000000000000000000000000000000000000000000001000011 .
b0000000000000000000000000000000000000000000000000000000001000010 /
#675000000
0%
0'
b0 )
#680000000
1%
1'
b0 )
b0000000000000000000000000000000000000000000000000000000001000100 .
b0000000000000000000000000000000000000000000000000000000001000011 /
#685000000
0%
0'
b0 )
#690000000
1%
1'
b0 )
b0000000000000000000000000000000000000000000000000000000001000101 .
b0000000000000000000000000000000000000000000000000000000001000100 /
#695000000
0%
0'
b0 )
#700000000
1%
1'
b0 )
b0000000000000000000000000000000000000000000000000000000001000110 .
b0000000000000000000000000000000000000000000000000000000001000101 /
#705000000
0%
0'
b0 )
#710000000
1%
1'
b0 )
b0000000000000000000000000000000000000000000000000000000001000111 .
b0000000000000000000000000000000000000000000000000000000001000110 /
#715000000
0%
0'
b0 )
#720000000
1%
1'
b0 )
b0000000000000000000000000000000000000000000000000000000001001000 .
b0000000000000000000000000000000000000000000000000000000001000111 /
#725000000
0%
0'
b0 )
#730000000
1%
1'
b0 )
b0000000000000000000000000000000000000000000000000000000001001001 .
b0000000000000000000000000000000000000000000000000000000001001000 /
#735000000
0%
0'
b0 )
#740000000
1%
1'
b0 )
b0000000000000000000000000000000000000000000000000000000001001010 .
b0000000000000000000000000000000000000000000000000000000001001001 /
#745000000
0%
0'
b0 )
#750000000
1%
1'
b0 )
b0000000000000000000000000000000000000000000000000000000001001011 .
b0000000000000000000000000000000000000000000000000000000001001010 /
#755000000
0%
0'
b0 )
#760000000
1%
1'
b0 )
b0000000000000000000000000000000000000000000000000000000001001100 .
b0000000000000000000000000000000000000000000000000000000001001011 /
#765000000
0%
0'
b0 )
#770000000
1%
1'
b0 )
b0000000000000000000000000000000000000000000000000000000001001101 .
b0000000000000000000000000000000000000000000000000000000001001100 /
#775000000
0%
0'
b0 )
#780000000
1%
1'
b0 )
b0000000000000000000000000000000000000000000000000000000001001110 .
b0000000000000000000000000000000000000000000000000000000001001101 /
#785000000
0%
0'
b0 )
#790000000
1%
1'
b0 )
b0000000000000000000000000000000000000000000000000000000001001111 .
b0000000000000000000000000000000000000000000000000000000001001110 /
#795000000
0%
0'
b0 )
#800000000
1%
1'
b0 )
b0000000000000000000000000000000000000000000000000000000001010000 .
b0000000000000000000000000000000000000000000000000000000001001111 /
#805000000
0%
0'
b0 )
#810000000
1%
1'
b0 )
b0000000000000000000000000000000000000000000000000000000001010001 .
b0000000000000000000000000000000000000000000000000000000001010000 /
#815000000
0%
0'
b0 )
#820000000
1%
1'
b0 )
b0000000000000000000000000000000000000000000000000000000001010010 .
b0000000000000000000000000000000000000000000000000000000001010001 /
#825000000
0%
0'
b0 )
#830000000
1%
1'
b0 )
b0000000000000000000000000000000000000000000000000000000001010011 .
b0000000000000000000000000000000000000000000000000000000001010010 /
#835000000
0%
0'
b0 )
#840000000
1%
1'
b0 )
b0000000000000000000000000000000000000000000000000000000001010100 .
b0000000000000000000000000000000000000000000000000000000001010011 /
#845000000
0%
0'
b0 )
#850000000
1%
1'
b0 )
b0000000000000000000000000000000000000000000000000000000001010101 .
b0000000000000000000000000000000000000000000000000000000001010100 /
#855000000
0%
0'
b0 )
#860000000
1%
1'
b0 )
b0000000000000000000000000000000000000000000000000000000001010110 .
b0000000000000000000000000000000000000000000000000000000001010101 /
#865000000
0%
0'
b0 )
#870000000
1%
1'
b0 )
b0000000000000000000000000000000000000000000000000000000001010111 .
b0000000000000000000000000000000000000000000000000000000001010110 /
#875000000
0%
0'
b0 )
#880000000
1%
1'
b0 )
b0000000000000000000000000000000000000000000000000000000001011000 .
b0000000000000000000000000000000000000000000000000000000001010111 /
#885000000
0%
0'
b0 )
#890000000
1%
1'
b0 )
b0000000000000000000000000000000000000000000000000000000001011001 .
b0000000000000000000000000000000000000000000000000000000001011000 /
#895000000
0%
0'
b0 )
#900000000
1%
1'
b0 )
b0000000000000000000000000000000000000000000000000000000001011010 .
b0000000000000000000000000000000000000000000000000000000001011001 /
#905000000
0%
0'
b0 )
#910000000
1%
1'
b0 )
b0000000000000000000000000000000000000000000000000000000001011011 .
b0000000000000000000000000000000000000000000000000000000001011010 /
#915000000
0%
0'
b0 )
#920000000
1%
1'
b0 )
b0000000000000000000000000000000000000000000000000000000001011100 .
b0000000000000000000000000000000000000000000000000000000001011011 /
#925000000
0%
0'
b0 )
#930000000
1%
1'
b0 )
b0000000000000000000000000000000000000000000000000000000001011101 .
b0000000000000000000000000000000000000000000000000000000001011100 /
#935000000
0%
0'
b0 )
#940000000
1%
1'
b0 )
b0000000000000000000000000000000000000000000000000000000001011110 .
b0000000000000000000000000000000000000000000000000000000001011101 /
#945000000
0%
0'
b0 )
#950000000
1%
1'
b0 )
b0000000000000000000000000000000000000000000000000000000001011111 .
b0000000000000000000000000000000000000000000000000000000001011110 /
#955000000
0%
0'
b0 )
#960000000
1%
1'
b0 )
b0000000000000000000000000000000000000000000000000000000001100000 .
b0000000000000000000000000000000000000000000000000000000001011111 /
#965000000
0%
0'
b0 )
#970000000
1%
1'
b0 )
b0000000000000000000000000000000000000000000000000000000001100001 .
b0000000000000000000000000000000000000000000000000000000001100000 /
#975000000
0%
0'
b0 )
#980000000
1%
1'
b0 )
b0000000000000000000000000000000000000000000000000000000001100010 .
b0000000000000000000000000000000000000000000000000000000001100001 /
#985000000
0%
0'
b0 )
#990000000
1%
1'
b0 )
b0000000000000000000000000000000000000000000000000000000001100011 .
b0000000000000000000000000000000000000000000000000000000001100010 /
#995000000
0%
0'
b0 )
#1000000000
1%
1'
b0 )
b0000000000000000000000000000000000000000000000000000000001100100 .
b0000000000000000000000000000000000000000000000000000000001100011 /
#1005000000
0%
0'
b0 )
#1010000000
1%
1'
b0 )
b0000000000000000000000000000000000000000000000000000000001100101 .
b0000000000000000000000000000000000000000000000000000000001100100 /
#1015000000
0%
0'
b0 )
#1020000000
1%
1'
b0 )
b0000000000000000000000000000000000000000000000000000000001100110 .
b0000000000000000000000000000000000000000000000000000000001100101 /
#1025000000
0%
0'
b0 )
#1030000000
1%
1'
b0 )
b0000000000000000000000000000000000000000000000000000000001100111 .
b0000000000000000000000000000000000000000000000000000000001100110 /
#1035000000
0%
0'
b0 )
#1040000000
1%
1'
b0 )
b0000000000000000000000000000000000000000000000000000000001101000 .
b0000000000000000000000000000000000000000000000000000000001100111 /
#1045000000
0%
0'
b0 )
#1050000000
1%
1'
b0 )
b0000000000000000000000000000000000000000000000000000000001101001 .
b0000000000000000000000000000000000000000000000000000000001101000 /
#1055000000
0%
0'
b0 )
#1060000000
1%
1'
b0 )
b0000000000000000000000000000000000000000000000000000000001101010 .
b0000000000000000000000000000000000000000000000000000000001101001 /
#1065000000
0%
0'
b0 )
#1070000000
1%
1'
b0 )
b0000000000000000000000000000000000000000000000000000000001101011 .
b0000000000000000000000000000000000000000000000000000000001101010 /
#1075000000
0%
0'
b0 )
#1080000000
1%
1'
b0 )
b0000000000000000000000000000000000000000000000000000000001101100 .
b0000000000000000000000000000000000000000000000000000000001101011 /
#1085000000
0%
0'
b0 )
#1090000000
1%
1'
b0 )
b0000000000000000000000000000000000000000000000000000000001101101 .
b0000000000000000000000000000000000000000000000000000000001101100 /
#1095000000
0%
0'
b0 )
#1100000000
1%
1'
b0 )
b0000000000000000000000000000000000000000000000000000000001101110 .
b0000000000000000000000000000000000000000000000000000000001101101 /
#1105000000
0%
0'
b0 )
#1110000000
1%
1'
b0 )
b0000000000000000000000000000000000000000000000000000000001101111 .
b0000000000000000000000000000000000000000000000000000000001101110 /
#1115000000
0%
0'
b0 )
#1120000000
1%
1'
b0 )
b0000000000000000000000000000000000000000000000000000000001110000 .
b0000000000000000000000000000000000000000000000000000000001101111 /
#1125000000
0%
0'
b0 )
#1130000000
1%
1'
b0 )
b0000000000000000000000000000000000000000000000000000000001110001 .
b0000000000000000000000000000000000000000000000000000000001110000 /
#1135000000
0%
0'
b0 )
#1140000000
1%
1'
b0 )
b0000000000000000000000000000000000000000000000000000000001110010 .
b0000000000000000000000000000000000000000000000000000000001110001 /
#1145000000
0%
0'
b0 )
#1150000000
1%
1'
b0 )
b0000000000000000000000000000000000000000000000000000000001110011 .
b0000000000000000000000000000000000000000000000000000000001110010 /
#1155000000
0%
0'
b0 )
#1160000000
1%
1'
b0 )
b0000000000000000000000000000000000000000000000000000000001110100 .
b0000000000000000000000000000000000000000000000000000000001110011 /
#1165000000
0%
0'
b0 )
#1170000000
1%
1'
b0 )
b0000000000000000000000000000000000000000000000000000000001110101 .
b0000000000000000000000000000000000000000000000000000000001110100 /
#1175000000
0%
0'
b0 )
#1180000000
1%
1'
b0 )
b0000000000000000000000000000000000000000000000000000000001110110 .
b0000000000000000000000000000000000000000000000000000000001110101 /
#1185000000
0%
0'
b0 )
#1190000000
1%
1'
b0 )
b0000000000000000000000000000000000000000000000000000000001110111 .
b0000000000000000000000000000000000000000000000000000000001110110 /
#1195000000
0%
0'
b0 )
#1200000000
1%
1'
b0 )
b0000000000000000000000000000000000000000000000000000000001111000 .
b0000000000000000000000000000000000000000000000000000000001110111 /
#1205000000
0%
0'
b0 )
#1210000000
1%
1'
b0 )
b0000000000000000000000000000000000000000000000000000000001111001 .
b0000000000000000000000000000000000000000000000000000000001111000 /
#1215000000
0%
0'
b0 )
#1220000000
1%
1'
b0 )
b0000000000000000000000000000000000000000000000000000000001111010 .
b0000000000000000000000000000000000000000000000000000000001111001 /
#1225000000
0%
0'
b0 )
#1230000000
1%
1'
b0 )
b0000000000000000000000000000000000000000000000000000000001111011 .
b0000000000000000000000000000000000000000000000000000000001111010 /
#1235000000
0%
0'
b0 )
#1240000000
1%
1'
b0 )
b0000000000000000000000000000000000000000000000000000000001111100 .
b0000000000000000000000000000000000000000000000000000000001111011 /
#1245000000
0%
0'
b0 )
#1250000000
1%
1'
b0 )
b0000000000000000000000000000000000000000000000000000000001111101 .
b0000000000000000000000000000000000000000000000000000000001111100 /
#1255000000
0%
0'
b0 )
#1260000000
1%
1'
b0 )
b0000000000000000000000000000000000000000000000000000000001111110 .
b0000000000000000000000000000000000000000000000000000000001111101 /
#1265000000
0%
0'
b0 )
#1270000000
1%
1'
b0 )
b0000000000000000000000000000000000000000000000000000000001111111 .
b0000000000000000000000000000000000000000000000000000000001111110 /
#1275000000
0%
0'
b0 )
#1280000000
1%
1'
b0 )
b0000000000000000000000000000000000000000000000000000000010000000 .
b0000000000000000000000000000000000000000000000000000000001111111 /
#1285000000
0%
0'
b0 )
#1290000000
1%
1'
b0 )
b0000000000000000000000000000000000000000000000000000000010000001 .
b0000000000000000000000000000000000000000000000000000000010000000 /
#1295000000
0%
0'
b0 )
#1300000000
1%
1'
b0 )
b0000000000000000000000000000000000000000000000000000000010000010 .
b0000000000000000000000000000000000000000000000000000000010000001 /
#1305000000
0%
0'
b0 )
#1310000000
1%
1'
b0 )
b0000000000000000000000000000000000000000000000000000000010000011 .
b0000000000000000000000000000000000000000000000000000000010000010 /
#1315000000
0%
0'
b0 )
#1320000000
1%
1'
b0 )
b0000000000000000000000000000000000000000000000000000000010000100 .
b0000000000000000000000000000000000000000000000000000000010000011 /
#1325000000
0%
0'
b0 )
#1330000000
1%
1'
b0 )
b0000000000000000000000000000000000000000000000000000000010000101 .
b0000000000000000000000000000000000000000000000000000000010000100 /
#1335000000
0%
0'
b0 )
#1340000000
1%
1'
b0 )
b0000000000000000000000000000000000000000000000000000000010000110 .
b0000000000000000000000000000000000000000000000000000000010000101 /
#1345000000
0%
0'
b0 )
#1350000000
1%
1'
b0 )
b0000000000000000000000000000000000000000000000000000000010000111 .
b0000000000000000000000000000000000000000000000000000000010000110 /
#1355000000
0%
0'
b0 )
#1360000000
1%
1'
b0 )
b0000000000000000000000000000000000000000000000000000000010001000 .
b0000000000000000000000000000000000000000000000000000000010000111 /
#1365000000
0%
0'
b0 )
#1370000000
1%
1'
b0 )
b0000000000000000000000000000000000000000000000000000000010001001 .
b0000000000000000000000000000000000000000000000000000000010001000 /
#1375000000
0%
0'
b0 )
#1380000000
1%
1'
b0 )
b0000000000000000000000000000000000000000000000000000000010001010 .
b0000000000000000000000000000000000000000000000000000000010001001 /
#1385000000
0%
0'
b0 )
#1390000000
1%
1'
b0 )
b0000000000000000000000000000000000000000000000000000000010001011 .
b0000000000000000000000000000000000000000000000000000000010001010 /
#1395000000
0%
0'
b0 )
#1400000000
1%
1'
b0 )
b0000000000000000000000000000000000000000000000000000000010001100 .
b0000000000000000000000000000000000000000000000000000000010001011 /
#1405000000
0%
0'
b0 )
#1410000000
1%
1'
b0 )
b0000000000000000000000000000000000000000000000000000000010001101 .
b0000000000000000000000000000000000000000000000000000000010001100 /
#1415000000
0%
0'
b0 )
#1420000000
1%
1'
b0 )
b0000000000000000000000000000000000000000000000000000000010001110 .
b0000000000000000000000000000000000000000000000000000000010001101 /
#1425000000
0%
0'
b0 )
#1430000000
1%
1'
b0 )
b0000000000000000000000000000000000000000000000000000000010001111 .
b0000000000000000000000000000000000000000000000000000000010001110 /
#1435000000
0%
0'
b0 )
#1440000000
1%
1'
b0 )
b0000000000000000000000000000000000000000000000000000000010010000 .
b0000000000000000000000000000000000000000000000000000000010001111 /
#1445000000
0%
0'
b0 )
#1450000000
1%
1'
b0 )
b0000000000000000000000000000000000000000000000000000000010010001 .
b0000000000000000000000000000000000000000000000000000000010010000 /
#1455000000
0%
0'
b0 )
#1460000000
1%
1'
b0 )
b0000000000000000000000000000000000000000000000000000000010010010 .
b0000000000000000000000000000000000000000000000000000000010010001 /
#1465000000
0%
0'
b0 )
#1470000000
1%
1'
b0 )
b0000000000000000000000000000000000000000000000000000000010010011 .
b0000000000000000000000000000000000000000000000000000000010010010 /
#1475000000
0%
0'
b0 )
#1480000000
1%
1'
b0 )
b0000000000000000000000000000000000000000000000000000000010010100 .
b0000000000000000000000000000000000000000000000000000000010010011 /
#1485000000
0%
0'
b0 )
#1490000000
1%
1'
b0 )
b0000000000000000000000000000000000000000000000000000000010010101 .
b0000000000000000000000000000000000000000000000000000000010010100 /
#1495000000
0%
0'
b0 )
#1500000000
1%
1'
b0 )
b0000000000000000000000000000000000000000000000000000000010010110 .
b0000000000000000000000000000000000000000000000000000000010010101 /
#1505000000
0%
0'
b0 )
#1510000000
1%
1'
b0 )
b0000000000000000000000000000000000000000000000000000000010010111 .
b0000000000000000000000000000000000000000000000000000000010010110 /
#1515000000
0%
0'
b0 )
#1520000000
1%
1'
b0 )
b0000000000000000000000000000000000000000000000000000000010011000 .
b0000000000000000000000000000000000000000000000000000000010010111 /
#1525000000
0%
0'
b0 )
#1530000000
1%
1'
b0 )
b0000000000000000000000000000000000000000000000000000000010011001 .
b0000000000000000000000000000000000000000000000000000000010011000 /
#1535000000
0%
0'
b0 )
#1540000000
1%
1'
b0 )
b0000000000000000000000000000000000000000000000000000000010011010 .
b0000000000000000000000000000000000000000000000000000000010011001 /
#1545000000
0%
0'
b0 )
#1550000000
1%
1'
b0 )
b0000000000000000000000000000000000000000000000000000000010011011 .
b0000000000000000000000000000000000000000000000000000000010011010 /
#1555000000
0%
0'
b0 )
#1560000000
1%
1'
b0 )
b0000000000000000000000000000000000000000000000000000000010011100 .
b0000000000000000000000000000000000000000000000000000000010011011 /
#1565000000
0%
0'
b0 )
#1570000000
1%
1'
b0 )
b0000000000000000000000000000000000000000000000000000000010011101 .
b0000000000000000000000000000000000000000000000000000000010011100 /
#1575000000
0%
0'
b0 )
#1580000000
1%
1'
b0 )
b0000000000000000000000000000000000000000000000000000000010011110 .
b0000000000000000000000000000000000000000000000000000000010011101 /
#1585000000
0%
0'
b0 )
#1590000000
1%
1'
b0 )
b0000000000000000000000000000000000000000000000000000000010011111 .
b0000000000000000000000000000000000000000000000000000000010011110 /
#1595000000
0%
0'
b0 )
#1600000000
1%
1'
b0 )
b0000000000000000000000000000000000000000000000000000000010100000 .
b0000000000000000000000000000000000000000000000000000000010011111 /
#1605000000
0%
0'
b0 )
